Session 4: Homework 2
…
Create a new variable called email that combines emailhr and emailmin to reports the number of minutes the respondents spend on email weekly.

gss_email <- gss

# we change variables for emailhr and emailmin to numeric
gss_email$emailhr <- as.numeric(gss_email$emailhr)
gss_email$emailmin <- as.numeric(gss_email$emailmin)

# We create a combined column for email with data in minutes
gss_email <- gss_email %>%
  mutate(email = emailhr * 60 + emailmin)
  
gss_email

## # A tibble: 2,867 x 8
##    emailmin emailhr snapchat instagrm twitter sex    degree         email
##       <dbl>   <dbl> <chr>    <chr>    <chr>   <chr>  <chr>          <dbl>
##  1        0      12 NA       NA       NA      Male   Bachelor         720
##  2       30       0 No       No       No      Male   High school       30
##  3       NA      NA No       No       No      Male   Bachelor          NA
##  4       10       0 NA       NA       NA      Female High school       10
##  5       NA      NA Yes      Yes      No      Female Graduate          NA
##  6        0       2 No       Yes      No      Female Junior college   120
##  7        0      40 NA       NA       NA      Male   High school     2400
##  8       NA      NA Yes      Yes      No      Female High school       NA
##  9        0       0 NA       NA       NA      Male   High school        0
## 10       NA      NA No       No       No      Male   Junior college    NA
## # ... with 2,857 more rows
…
